{
  "id": "3",
  "type": "Cycle",
  "name": "Sample",
  "functionalUnit": "1 ha",
  "site": {
    "id": "1",
    "type": "Site"
  },
  "dataPrivate": true,
  "endDate": "2008-12",
  "completeness": {
    "type": "Completeness",
    "electricityFuel": true,
    "material": true,
    "fertiliser": true,
    "water": true,
    "cropResidue": true,
    "animalFeed": true,
    "transport": false,
    "excreta": true,
    "waste": true,
    "seed": true,
    "pesticideVeterinaryDrug": true,
    "liveAnimalInput": true,
    "operation": true,
    "soilAmendment": true,
    "product": true,
    "otherChemical": false,
    "freshForage": false,
    "ingredient": false,
    "animalPopulation": false
  },
  "defaultMethodClassification": "modelled",
  "defaultMethodClassificationDescription": "description",
  "animals": [
    {
      "animalId": "1",
      "@type": "Animal",
      "term": {
        "@type": "Term",
        "@id": "alpaca",
        "termType": "liveAnimal"
      },
      "value": 10,
      "referencePeriod": "average"
    }
  ]
}
