{
  "id": "fake-ia",
  "type": "ImpactAssessment",
  "cycle": {
    "id": "fake-cycle",
    "type": "Cycle",
    "endDate": "2007-01-12"
  },
  "country": {
    "@id": "GADM-BRA",
    "@type": "Term",
    "name": "Brazil",
    "termType": "region"
  },
  "product": {
    "@type": "Product",
    "term": {
      "@id": "maizeGrain",
      "@type": "Term"
    }
  },
  "functionalUnitQuantity": 1,
  "dataPrivate": true,
  "allocationMethod": "economic",
  "endDate": "2008"
}
