{
  "id": "cycle",
  "type": "Cycle",
  "functionalUnit": "relative",
  "cycleDuration": 330,
  "site": {
    "id": "site",
    "type": "Site",
    "siteType": "cropland",
    "country": {
      "@type": "Term",
      "@id": "GADM-GBR"
    }
  },
  "endDate": "2019",
  "defaultMethodClassification": "non-verified survey data",
  "products": [
    {
      "type": "Product",
      "term": {
        "@type": "Term",
        "termType": "liveAquaticSpecies",
        "name": "Roho labeo",
        "units": "kg liveweight",
        "@id": "rohoLabeo"
      },
      "primary": true
    },
    {
      "type": "Product",
      "term": {
        "@type": "Term",
        "termType": "liveAquaticSpecies",
        "name": "Catla",
        "units": "kg liveweight",
        "@id": "catla"
      }
    },
    {
      "type": "Product",
      "term": {
        "@type": "Term",
        "termType": "liveAquaticSpecies",
        "name": "Striped catfish",
        "units": "kg liveweight",
        "@id": "stripedCatfish"
      }
    }
  ],
  "completeness": {
    "type": "Completeness",
    "electricityFuel": true,
    "material": false,
    "fertiliser": true,
    "water": false,
    "cropResidue": true,
    "excreta": false,
    "animalFeed": false,
    "transport": false,
    "waste": false,
    "seed": true,
    "pesticideVeterinaryDrug": true,
    "liveAnimalInput": true,
    "operation": true,
    "soilAmendment": true,
    "product": false,
    "otherChemical": false,
    "freshForage": false,
    "ingredient": false,
    "animalPopulation": false
  },
  "dataPrivate": true,
  "defaultMethodClassificationDescription": "description",
  "startDateDefinition": "harvest of previous crop"
}
