{
  "name": "cycle",
  "functionalUnit": "1 ha",
  "defaultSource": {
    "id": "1",
    "type": "Source"
  },
  "site": {
    "id": "1",
    "type": "Site"
  },
  "dataPrivate": false,
  "endDate": "2008-12",
  "products": [
    {
      "type": "Product",
      "term": {
        "@type": "Term",
        "name": "Above Ground Crop Residue Left On Field",
        "@id": "aboveGroundCropResidueLeftOnField"
      },
      "startDate": "2019-01-01",
      "endDate": "2020-01-01"
    },
    {
      "type": "Product",
      "term": {
        "@type": "Term",
        "name": "Above Ground Crop Residue Left On Field",
        "@id": "aboveGroundCropResidueLeftOnField"
      },
      "startDate": "2019",
      "endDate": "2020-01-01"
    }
  ],
  "id": "3",
  "type": "Cycle",
  "completeness": {
    "type": "Completeness",
    "electricityFuel": true,
    "material": true,
    "fertiliser": true,
    "water": true,
    "cropResidue": true,
    "animalFeed": true,
    "transport": false,
    "excreta": true,
    "waste": true,
    "seed": true,
    "pesticideVeterinaryDrug": true,
    "liveAnimalInput": true,
    "operation": true,
    "soilAmendment": true,
    "product": true,
    "otherChemical": false,
    "freshForage": false,
    "ingredient": false,
    "animalPopulation": false
  },
  "defaultMethodClassification": "modelled",
  "defaultMethodClassificationDescription": "description"
}
