{
  "id": "3",
  "type": "Cycle",
  "functionalUnit": "1 ha",
  "description": "cCTSRN0",
  "site": {
    "id": "1",
    "type": "Site"
  },
  "dataPrivate": true,
  "completeness": {
    "type": "Completeness",
    "electricityFuel": true,
    "material": true,
    "fertiliser": true,
    "water": true,
    "cropResidue": true,
    "animalFeed": true,
    "transport": false,
    "excreta": true,
    "waste": true,
    "seed": true,
    "pesticideVeterinaryDrug": true,
    "liveAnimalInput": true,
    "operation": true,
    "soilAmendment": true,
    "product": true,
    "otherChemical": false,
    "freshForage": false,
    "ingredient": false,
    "animalPopulation": false
  },
  "defaultMethodClassification": "modelled",
  "defaultMethodClassificationDescription": "description",
  "endDate": "2008-12",
  "products": [
    {
      "type": "Product",
      "term": {
        "@type": "Term",
        "@id": "meatBeefCattleLiveweight",
        "termType": "animalProduct",
        "units": "kg liveweight"
      },
      "primary": true
    }
  ],
  "practices": [
    {
      "type": "Practice",
      "term": {
        "@type": "Term",
        "@id": "feedlotSystem",
        "termType": "system",
        "units": "% area"
      },
      "value": [30]
    },
    {
      "type": "Practice",
      "term": {
        "@type": "Term",
        "@id": "indoorAnimalSystem",
        "termType": "system",
        "units": "% area"
      },
      "value": [70]
    }
  ]
}
