{
  "id": "3",
  "type": "Cycle",
  "name": "Sample",
  "functionalUnit": "1 ha",
  "site": {
    "id": "1",
    "type": "Site"
  },
  "dataPrivate": true,
  "endDate": "2008-12",
  "emissions": [
    {
      "type": "Emission",
      "term": {
        "@type": "Term",
        "@id": "co2ToAirFuelCombustion",
        "termType": "emission"
      },
      "methodModel": {
        "@type": "Term",
        "@id": "model"
      },
      "methodTier": "tier 3",
      "value": [
        1
      ]
    },
    {
      "type": "Emission",
      "term": {
        "@type": "Term",
        "@id": "ch4ToAirEntericFermentation",
        "termType": "emission"
      },
      "methodModel": {
        "@type": "Term",
        "@id": "model"
      },
      "methodTier": "tier 3",
      "value": [
        1
      ],
      "inputs": [
        {
          "@id": "seed",
          "@type": "Term",
          "name": "Seed",
          "termType": "seed"
        }
      ]
    }
  ],
  "completeness": {
    "type": "Completeness",
    "electricityFuel": true,
    "material": true,
    "fertiliser": true,
    "water": true,
    "cropResidue": true,
    "animalFeed": true,
    "transport": false,
    "excreta": true,
    "waste": true,
    "seed": true,
    "pesticideVeterinaryDrug": true,
    "liveAnimalInput": true,
    "operation": true,
    "soilAmendment": true,
    "product": true,
    "otherChemical": false,
    "freshForage": false,
    "ingredient": false,
    "animalPopulation": false
  },
  "defaultMethodClassification": "modelled",
  "defaultMethodClassificationDescription": "description"
}
