{
  "id": "3",
  "type": "Cycle",
  "name": "Generic Crop, seed - Australia - 1968-2008",
  "functionalUnit": "1 ha",
  "defaultSource": {
    "id": "1",
    "type": "Source"
  },
  "description": "cCTSRN0",
  "site": {
    "id": "1",
    "type": "Site"
  },
  "dataPrivate": false,
  "endDate": "2008-12",
  "products": [
    {
      "type": "Product",
      "term": {
        "@type": "Term",
        "@id": "broilerChicken",
        "units": "number",
        "termType": "liveAnimal"
      },
      "primary": true
    },
    {
      "type": "Product",
      "term": {
        "@type": "Term",
        "@id": "excretaCamelsKgN",
        "termType": "excreta",
        "units": "kg N"
      }
    }
  ],
  "completeness": {
    "type": "Completeness",
    "electricityFuel": true,
    "material": true,
    "fertiliser": true,
    "water": true,
    "cropResidue": true,
    "animalFeed": true,
    "transport": false,
    "excreta": true,
    "waste": true,
    "seed": true,
    "pesticideVeterinaryDrug": true,
    "liveAnimalInput": true,
    "operation": true,
    "soilAmendment": true,
    "product": true,
    "otherChemical": false,
    "freshForage": false,
    "ingredient": false,
    "animalPopulation": false
  },
  "defaultMethodClassification": "modelled",
  "defaultMethodClassificationDescription": "description"
}
