{
  "nodes": [
    {
      "type": "Measurement",
      "term": {
        "@id": "altitude",
        "@type": "Term",
        "name": "Altitude"
      },
      "value": [
        10
      ],
      "methodClassification": "unsourced assumption"
    },
    {
      "type": "Measurement",
      "term": {
        "@id": "altitude",
        "@type": "Term",
        "name": "Altitude"
      },
      "value": [
        20
      ],
      "methodClassification": "unsourced assumption"
    }
  ]
}
