{
  "id": "kKPI9-H1R_0",
  "type": "ImpactAssessment",
  "cycle": {
    "id": "3",
    "type": "Cycle",
    "site": {
      "id": "1",
      "type": "Site"
    },
    "defaultMethodClassificationDescription": "description"
  },
  "site": {
    "id": "1",
    "type": "Site"
  },
  "country": {
    "@id": "GADM-BRA",
    "@type": "Term",
    "name": "Brazil",
    "termType": "region"
  },
  "product": {
    "@type": "Product",
    "term": {
      "@id": "maizeGrain",
      "@type": "Term"
    }
  },
  "source": {
    "@id": "qbawuv9qvg",
    "@type": "Source"
  },
  "functionalUnitQuantity": 1,
  "dataPrivate": false,
  "allocationMethod": "economic",
  "endDate": "2008",
  "emissionsResourceUse": [
    {
      "@type": "Indicator",
      "term": {
        "@type": "Term",
        "@id": "co2ToAirUreaHydrolysis",
        "name": "CO2, to air, urea hydrolysis",
        "units": "kg CO2",
        "termType": "emission"
      },
      "methodModel": {
        "@type": "Term",
        "@id": "ipcc2019"
      },
      "value": 0.06419170939,
      "methodTier": "tier 1"
    }
  ],
  "impacts": [
    {
      "@type": "Indicator",
      "term": {
        "@type": "Term",
        "@id": "gwp100",
        "name": "GWP100",
        "units": "kg CO2eq",
        "termType": "characterisedIndicator"
      },
      "methodModel": {
        "@type": "Term",
        "@id": "ipcc2013IncludingFeedbacks",
        "name": "IPCC (2013) including feedbacks",
        "termType": "model"
      },
      "value": 5
    }
  ]
}
